{
  "project_info": {
    "project_number": "135408429746",
    "firebase_url": "https://kinder-koh.firebaseio.com",
    "project_id": "kinder-koh",
    "storage_bucket": "kinder-koh.appspot.com"
  },
  "client": [
    {
      "client_info": {
        "mobilesdk_app_id": "1:135408429746:android:7c59a505389f0c34",
        "android_client_info": {
          "package_name": "com.una.kinder"
        }
      },
      "oauth_client": [
        {
          "client_id": "135408429746-4p25bs7acqev3v1keqv198pkhgu699cp.apps.googleusercontent.com",
          "client_type": 1,
          "android_info": {
            "package_name": "com.una.kinder",
            "certificate_hash": "a9cdd9d4062767a5913ff4dacd0257e6223297ea"
          }
        },
        {
          "client_id": "135408429746-ot6hnjoaamango23mbregvj385cem4ts.apps.googleusercontent.com",
          "client_type": 1,
          "android_info": {
            "package_name": "com.una.kinder",
            "certificate_hash": "a9a193dcb38c879c82c99a862d494708deaa8d49"
          }
        },
        {
          "client_id": "135408429746-prjjjk69njuq0ci1d72vfekbmnpcacob.apps.googleusercontent.com",
          "client_type": 3
        }
      ],
      "api_key": [
        {
          "current_key": "AIzaSyBp9AM5vOKxtQ704KXUtFJbQeN-_1mhesI"
        }
      ],
      "services": {
        "analytics_service": {
          "status": 1
        },
        "appinvite_service": {
          "status": 2,
          "other_platform_oauth_client": [
            {
              "client_id": "135408429746-prjjjk69njuq0ci1d72vfekbmnpcacob.apps.googleusercontent.com",
              "client_type": 3
            }
          ]
        },
        "ads_service": {
          "status": 2
        }
      }
    }
  ],
  "configuration_version": "1"
}